Lab4/Lab4-simulation/simulation/qsim/LogicalStep_Lab4.msim.vcd
$comment
	File created using the following command:
		vcd file LogicalStep_Lab4.msim.vcd -direction
$end
$date
	Mon Mar 24 18:28:17 2025
$end
$version
	ModelSim Version 10.5b
$end
$timescale
	1ps
$end

$scope module logicalstep_lab4_top_vhd_vec_tst $end
$var wire 1 ! blink_sig $end
$var wire 1 " clkin_50 $end
$var wire 1 # EW_a $end
$var wire 1 $ EW_d $end
$var wire 1 % EW_g $end
$var wire 1 & leds [7] $end
$var wire 1 ' leds [6] $end
$var wire 1 ( leds [5] $end
$var wire 1 ) leds [4] $end
$var wire 1 * leds [3] $end
$var wire 1 + leds [2] $end
$var wire 1 , leds [1] $end
$var wire 1 - leds [0] $end
$var wire 1 . NS_a $end
$var wire 1 / NS_d $end
$var wire 1 0 NS_g $end
$var wire 1 1 pb_n [3] $end
$var wire 1 2 pb_n [2] $end
$var wire 1 3 pb_n [1] $end
$var wire 1 4 pb_n [0] $end
$var wire 1 5 rst_n $end
$var wire 1 6 seg7_char1 $end
$var wire 1 7 seg7_char2 $end
$var wire 1 8 seg7_data [6] $end
$var wire 1 9 seg7_data [5] $end
$var wire 1 : seg7_data [4] $end
$var wire 1 ; seg7_data [3] $end
$var wire 1 < seg7_data [2] $end
$var wire 1 = seg7_data [1] $end
$var wire 1 > seg7_data [0] $end
$var wire 1 ? sm_clken $end
$var wire 1 @ sw [7] $end
$var wire 1 A sw [6] $end
$var wire 1 B sw [5] $end
$var wire 1 C sw [4] $end
$var wire 1 D sw [3] $end
$var wire 1 E sw [2] $end
$var wire 1 F sw [1] $end
$var wire 1 G sw [0] $end

$scope module i1 $end
$var wire 1 H gnd $end
$var wire 1 I vcc $end
$var wire 1 J unknown $end
$var wire 1 K devoe $end
$var wire 1 L devclrn $end
$var wire 1 M devpor $end
$var wire 1 N ww_devoe $end
$var wire 1 O ww_devclrn $end
$var wire 1 P ww_devpor $end
$var wire 1 Q ww_clkin_50 $end
$var wire 1 R ww_rst_n $end
$var wire 1 S ww_pb_n [3] $end
$var wire 1 T ww_pb_n [2] $end
$var wire 1 U ww_pb_n [1] $end
$var wire 1 V ww_pb_n [0] $end
$var wire 1 W ww_sw [7] $end
$var wire 1 X ww_sw [6] $end
$var wire 1 Y ww_sw [5] $end
$var wire 1 Z ww_sw [4] $end
$var wire 1 [ ww_sw [3] $end
$var wire 1 \ ww_sw [2] $end
$var wire 1 ] ww_sw [1] $end
$var wire 1 ^ ww_sw [0] $end
$var wire 1 _ ww_leds [7] $end
$var wire 1 ` ww_leds [6] $end
$var wire 1 a ww_leds [5] $end
$var wire 1 b ww_leds [4] $end
$var wire 1 c ww_leds [3] $end
$var wire 1 d ww_leds [2] $end
$var wire 1 e ww_leds [1] $end
$var wire 1 f ww_leds [0] $end
$var wire 1 g ww_seg7_data [6] $end
$var wire 1 h ww_seg7_data [5] $end
$var wire 1 i ww_seg7_data [4] $end
$var wire 1 j ww_seg7_data [3] $end
$var wire 1 k ww_seg7_data [2] $end
$var wire 1 l ww_seg7_data [1] $end
$var wire 1 m ww_seg7_data [0] $end
$var wire 1 n ww_seg7_char1 $end
$var wire 1 o ww_seg7_char2 $end
$var wire 1 p ww_sm_clken $end
$var wire 1 q ww_blink_sig $end
$var wire 1 r ww_NS_a $end
$var wire 1 s ww_NS_g $end
$var wire 1 t ww_NS_d $end
$var wire 1 u ww_EW_a $end
$var wire 1 v ww_EW_g $end
$var wire 1 w ww_EW_d $end
$var wire 1 x \pb_n[2]~input_o\ $end
$var wire 1 y \pb_n[3]~input_o\ $end
$var wire 1 z \sw[0]~input_o\ $end
$var wire 1 { \sw[1]~input_o\ $end
$var wire 1 | \sw[2]~input_o\ $end
$var wire 1 } \sw[3]~input_o\ $end
$var wire 1 ~ \sw[4]~input_o\ $end
$var wire 1 !! \sw[5]~input_o\ $end
$var wire 1 "! \sw[6]~input_o\ $end
$var wire 1 #! \sw[7]~input_o\ $end
$var wire 1 $! \seg7_data[6]~output_o\ $end
$var wire 1 %! \leds[0]~output_o\ $end
$var wire 1 &! \leds[1]~output_o\ $end
$var wire 1 '! \leds[2]~output_o\ $end
$var wire 1 (! \leds[3]~output_o\ $end
$var wire 1 )! \leds[4]~output_o\ $end
$var wire 1 *! \leds[5]~output_o\ $end
$var wire 1 +! \leds[6]~output_o\ $end
$var wire 1 ,! \leds[7]~output_o\ $end
$var wire 1 -! \seg7_data[0]~output_o\ $end
$var wire 1 .! \seg7_data[1]~output_o\ $end
$var wire 1 /! \seg7_data[2]~output_o\ $end
$var wire 1 0! \seg7_data[3]~output_o\ $end
$var wire 1 1! \seg7_data[4]~output_o\ $end
$var wire 1 2! \seg7_data[5]~output_o\ $end
$var wire 1 3! \seg7_char1~output_o\ $end
$var wire 1 4! \seg7_char2~output_o\ $end
$var wire 1 5! \sm_clken~output_o\ $end
$var wire 1 6! \blink_sig~output_o\ $end
$var wire 1 7! \NS_a~output_o\ $end
$var wire 1 8! \NS_g~output_o\ $end
$var wire 1 9! \NS_d~output_o\ $end
$var wire 1 :! \EW_a~output_o\ $end
$var wire 1 ;! \EW_g~output_o\ $end
$var wire 1 <! \EW_d~output_o\ $end
$var wire 1 =! \clkin_50~input_o\ $end
$var wire 1 >! \pb_n[0]~input_o\ $end
$var wire 1 ?! \INST0|pb_n_filtered[0]~0_combout\ $end
$var wire 1 @! \rst_n~input_o\ $end
$var wire 1 A! \INST0|rst_n_filtered~0_combout\ $end
$var wire 1 B! \INSTNSS|sreg~0_combout\ $end
$var wire 1 C! \INSTNSHR|d~0_combout\ $end
$var wire 1 D! \INSTNSHR|dout~q\ $end
$var wire 1 E! \pb_n[1]~input_o\ $end
$var wire 1 F! \INST0|pb_n_filtered[1]~1_combout\ $end
$var wire 1 G! \INSTEWS|sreg~0_combout\ $end
$var wire 1 H! \INSTEWHR|d~0_combout\ $end
$var wire 1 I! \INSTEWHR|dout~q\ $end
$var wire 1 J! \INST3|clk_divider:counter[0]~1_combout\ $end
$var wire 1 K! \INST3|clk_divider:counter[0]~q\ $end
$var wire 1 L! \INST3|clk_divider:counter[0]~2\ $end
$var wire 1 M! \INST3|clk_divider:counter[1]~1_combout\ $end
$var wire 1 N! \INST3|clk_divider:counter[1]~q\ $end
$var wire 1 O! \INST3|clk_divider:counter[1]~2\ $end
$var wire 1 P! \INST3|clk_divider:counter[2]~1_combout\ $end
$var wire 1 Q! \INST3|clk_divider:counter[2]~q\ $end
$var wire 1 R! \INST3|clk_divider:counter[2]~2\ $end
$var wire 1 S! \INST3|clk_divider:counter[3]~1_combout\ $end
$var wire 1 T! \INST3|clk_divider:counter[3]~q\ $end
$var wire 1 U! \INST3|clk_divider:counter[3]~2\ $end
$var wire 1 V! \INST3|clk_divider:counter[4]~1_combout\ $end
$var wire 1 W! \INST3|clk_divider:counter[4]~q\ $end
$var wire 1 X! \INST3|clk_reg_extend~0_combout\ $end
$var wire 1 Y! \INST3|clk_reg_extend~1_combout\ $end
$var wire 1 Z! \INST3|sm_clken~combout\ $end
$var wire 1 [! \INSTSM|current_state~48_combout\ $end
$var wire 1 \! \INSTSM|current_state.S15~q\ $end
$var wire 1 ]! \INSTSM|current_state~45_combout\ $end
$var wire 1 ^! \INSTSM|current_state.S0~q\ $end
$var wire 1 _! \INSTSM|next_state.S1~0_combout\ $end
$var wire 1 `! \INSTSM|current_state~35_combout\ $end
$var wire 1 a! \INSTSM|current_state.S1~q\ $end
$var wire 1 b! \INSTSM|next_state.S2~0_combout\ $end
$var wire 1 c! \INSTSM|current_state.S2~q\ $end
$var wire 1 d! \INSTSM|current_state~34_combout\ $end
$var wire 1 e! \INSTSM|current_state.S3~q\ $end
$var wire 1 f! \INSTSM|current_state~36_combout\ $end
$var wire 1 g! \INSTSM|current_state.S4~q\ $end
$var wire 1 h! \INSTSM|current_state~37_combout\ $end
$var wire 1 i! \INSTSM|current_state.S5~q\ $end
$var wire 1 j! \INSTSM|Selector2~2_combout\ $end
$var wire 1 k! \INSTSM|current_state~41_combout\ $end
$var wire 1 l! \INSTSM|current_state~42_combout\ $end
$var wire 1 m! \INSTSM|current_state.S6~q\ $end
$var wire 1 n! \INSTSM|current_state~47_combout\ $end
$var wire 1 o! \INSTSM|current_state.S7~q\ $end
$var wire 1 p! \INSTSM|current_state~46_combout\ $end
$var wire 1 q! \INSTSM|current_state.S8~q\ $end
$var wire 1 r! \INSTSM|next_state.S9~0_combout\ $end
$var wire 1 s! \INSTSM|current_state.S9~q\ $end
$var wire 1 t! \INSTSM|next_state.S10~0_combout\ $end
$var wire 1 u! \INSTSM|current_state.S10~q\ $end
$var wire 1 v! \INSTSM|current_state~38_combout\ $end
$var wire 1 w! \INSTSM|current_state.S11~q\ $end
$var wire 1 x! \INSTSM|current_state~39_combout\ $end
$var wire 1 y! \INSTSM|current_state.S12~q\ $end
$var wire 1 z! \INSTSM|current_state~40_combout\ $end
$var wire 1 {! \INSTSM|current_state.S13~q\ $end
$var wire 1 |! \INSTSM|WideOr7~0_combout\ $end
$var wire 1 }! \INSTSM|current_state~43_combout\ $end
$var wire 1 ~! \INSTSM|current_state~44_combout\ $end
$var wire 1 !" \INSTSM|current_state.S14~q\ $end
$var wire 1 "" \INSTLIGHTS|clk_proc:COUNT[0]~0_combout\ $end
$var wire 1 #" \INSTLIGHTS|clk_proc:COUNT[0]~q\ $end
$var wire 1 $" \INSTLIGHTS|clk_proc:COUNT[1]~1_combout\ $end
$var wire 1 %" \INSTLIGHTS|clk_proc:COUNT[1]~q\ $end
$var wire 1 &" \INSTLIGHTS|clk_proc:COUNT[1]~2\ $end
$var wire 1 '" \INSTLIGHTS|clk_proc:COUNT[2]~1_combout\ $end
$var wire 1 (" \INSTLIGHTS|clk_proc:COUNT[2]~q\ $end
$var wire 1 )" \INSTLIGHTS|clk_proc:COUNT[2]~2\ $end
$var wire 1 *" \INSTLIGHTS|clk_proc:COUNT[3]~1_combout\ $end
$var wire 1 +" \INSTLIGHTS|clk_proc:COUNT[3]~q\ $end
$var wire 1 ," \INSTLIGHTS|clk_proc:COUNT[3]~2\ $end
$var wire 1 -" \INSTLIGHTS|clk_proc:COUNT[4]~1_combout\ $end
$var wire 1 ." \INSTLIGHTS|clk_proc:COUNT[4]~q\ $end
$var wire 1 /" \INSTLIGHTS|clk_proc:COUNT[4]~2\ $end
$var wire 1 0" \INSTLIGHTS|clk_proc:COUNT[5]~1_combout\ $end
$var wire 1 1" \INSTLIGHTS|clk_proc:COUNT[5]~q\ $end
$var wire 1 2" \INSTLIGHTS|clk_proc:COUNT[5]~2\ $end
$var wire 1 3" \INSTLIGHTS|clk_proc:COUNT[6]~1_combout\ $end
$var wire 1 4" \INSTLIGHTS|clk_proc:COUNT[6]~q\ $end
$var wire 1 5" \INSTLIGHTS|clk_proc:COUNT[6]~2\ $end
$var wire 1 6" \INSTLIGHTS|clk_proc:COUNT[7]~1_combout\ $end
$var wire 1 7" \INSTLIGHTS|clk_proc:COUNT[7]~q\ $end
$var wire 1 8" \INSTLIGHTS|clk_proc:COUNT[7]~2\ $end
$var wire 1 9" \INSTLIGHTS|clk_proc:COUNT[8]~1_combout\ $end
$var wire 1 :" \INSTLIGHTS|clk_proc:COUNT[8]~q\ $end
$var wire 1 ;" \INSTLIGHTS|clk_proc:COUNT[8]~2\ $end
$var wire 1 <" \INSTLIGHTS|clk_proc:COUNT[9]~1_combout\ $end
$var wire 1 =" \INSTLIGHTS|clk_proc:COUNT[9]~q\ $end
$var wire 1 >" \INSTLIGHTS|clk_proc:COUNT[9]~2\ $end
$var wire 1 ?" \INSTLIGHTS|clk_proc:COUNT[10]~1_combout\ $end
$var wire 1 @" \INSTLIGHTS|clk_proc:COUNT[10]~q\ $end
$var wire 1 A" \INSTSM|WideOr2~1_combout\ $end
$var wire 1 B" \INSTLIGHTS|DOUT_TEMP[6]~0_combout\ $end
$var wire 1 C" \INSTSM|WideOr3~combout\ $end
$var wire 1 D" \INSTSM|WideOr6~0_combout\ $end
$var wire 1 E" \INSTSM|WideOr9~0_combout\ $end
$var wire 1 F" \INSTSM|WideOr8~0_combout\ $end
$var wire 1 G" \INSTSM|WideOr9~combout\ $end
$var wire 1 H" \INSTSM|WideOr8~1_combout\ $end
$var wire 1 I" \INSTSM|WideOr8~combout\ $end
$var wire 1 J" \INSTSM|WideOr2~0_combout\ $end
$var wire 1 K" \INSTSM|WideOr7~combout\ $end
$var wire 1 L" \INSTSM|WideOr2~combout\ $end
$var wire 1 M" \INSTLIGHTS|DOUT[0]~0_combout\ $end
$var wire 1 N" \INST3|blink_sig~0_combout\ $end
$var wire 1 O" \INST3|blink_sig~q\ $end
$var wire 1 P" \INSTSM|Selector2~3_combout\ $end
$var wire 1 Q" \INSTSM|Selector3~2_combout\ $end
$var wire 1 R" \INSTLIGHTS|DOUT[3]~1_combout\ $end
$var wire 1 S" \INSTSM|ew_amber~combout\ $end
$var wire 1 T" \INSTNSS|sreg\ [1] $end
$var wire 1 U" \INSTNSS|sreg\ [0] $end
$var wire 1 V" \INSTEWS|sreg\ [1] $end
$var wire 1 W" \INSTEWS|sreg\ [0] $end
$var wire 1 X" \INST3|clk_reg_extend\ [1] $end
$var wire 1 Y" \INST3|clk_reg_extend\ [0] $end
$var wire 1 Z" \INST0|sreg4\ [3] $end
$var wire 1 [" \INST0|sreg4\ [2] $end
$var wire 1 \" \INST0|sreg4\ [1] $end
$var wire 1 ]" \INST0|sreg4\ [0] $end
$var wire 1 ^" \INSTMID|sreg\ [1] $end
$var wire 1 _" \INSTMID|sreg\ [0] $end
$var wire 1 `" \INST0|sreg0\ [3] $end
$var wire 1 a" \INST0|sreg0\ [2] $end
$var wire 1 b" \INST0|sreg0\ [1] $end
$var wire 1 c" \INST0|sreg0\ [0] $end
$var wire 1 d" \INST0|sreg1\ [3] $end
$var wire 1 e" \INST0|sreg1\ [2] $end
$var wire 1 f" \INST0|sreg1\ [1] $end
$var wire 1 g" \INST0|sreg1\ [0] $end
$var wire 1 h" \INSTSM|ALT_INV_WideOr2~combout\ $end
$var wire 1 i" \INSTSM|ALT_INV_WideOr2~1_combout\ $end
$var wire 1 j" \INSTSM|ALT_INV_WideOr7~combout\ $end
$var wire 1 k" \INSTSM|ALT_INV_WideOr8~combout\ $end
$var wire 1 l" \INSTSM|ALT_INV_WideOr9~combout\ $end
$var wire 1 m" \INSTLIGHTS|ALT_INV_clk_proc:COUNT[10]~q\ $end
$upscope $end
$upscope $end
$enddefinitions $end
#0
$dumpvars
0!
0"
1#
0$
0%
0.
0/
00
05
16
07
0?
0H
1I
xJ
1K
1L
1M
1N
1O
1P
0Q
0R
1n
0o
0p
0q
0r
0s
0t
1u
0v
0w
xx
xy
xz
x{
x|
x}
x~
x!!
x"!
x#!
0$!
0%!
0&!
0'!
0(!
0)!
0*!
0+!
0,!
1-!
0.!
0/!
00!
01!
02!
13!
04!
05!
06!
07!
08!
09!
1:!
0;!
0<!
0=!
1>!
1?!
0@!
1A!
0B!
0C!
0D!
1E!
1F!
0G!
0H!
0I!
1J!
0K!
0L!
0M!
0N!
1O!
0P!
0Q!
0R!
0S!
0T!
1U!
0V!
0W!
0X!
0Y!
0Z!
0[!
0\!
0]!
0^!
1_!
0`!
0a!
0b!
0c!
0d!
0e!
0f!
0g!
0h!
0i!
0j!
0k!
0l!
0m!
0n!
0o!
0p!
0q!
0r!
0s!
0t!
0u!
0v!
0w!
0x!
0y!
0z!
0{!
1|!
0}!
0~!
0!"
1""
0#"
0$"
0%"
0&"
0'"
0("
1)"
0*"
0+"
0,"
0-"
0."
1/"
00"
01"
02"
03"
04"
15"
06"
07"
08"
09"
0:"
1;"
0<"
0="
0>"
0?"
0@"
1A"
0B"
0C"
0D"
0E"
0F"
1G"
0H"
1I"
0J"
1K"
1L"
1M"
0N"
0O"
0P"
0Q"
0R"
0S"
0h"
0i"
0j"
0k"
0l"
1m"
x1
x2
13
14
0&
0'
0(
0)
0*
0+
0,
0-
08
09
0:
0;
0<
0=
1>
xS
xT
1U
1V
xW
xX
xY
xZ
x[
x\
x]
x^
0_
0`
0a
0b
0c
0d
0e
0f
0g
0h
0i
0j
0k
0l
1m
0T"
0U"
0V"
0W"
0X"
0Y"
0Z"
0["
0\"
0]"
0^"
0_"
0`"
0a"
0b"
0c"
0d"
0e"
0f"
0g"
x@
xA
xB
xC
xD
xE
xF
xG
$end
#10000
1"
1Q
1=!
1c"
1_"
1U"
1g"
1W"
1K!
1#"
0""
1$"
0J!
1L!
1G!
1B!
1M!
#20000
0"
0Q
0=!
#30000
1"
1Q
1=!
1b"
1^"
1T"
1f"
1V"
0K!
1N!
0#"
1%"
1""
0M!
0O!
1J!
0L!
0F!
0B!
0G!
1`!
0?!
1M!
1O!
1P!
0P!
#40000
0"
0Q
0=!
#50000
1"
1Q
1=!
1a"
0U"
0T"
1e"
0W"
0V"
0N!
1#"
0""
0$"
1&"
0M!
1'"
#60000
0"
0Q
0=!
#70000
1"
1Q
1=!
1`"
1d"
0#"
0%"
1("
0'"
0)"
1""
0&"
1'"
1)"
1*"
0*"
#80000
0"
15
0Q
1R
1@!
0=!
#90000
1"
1Q
1=!
1]"
1#"
0""
1$"
#100000
0"
0Q
0=!
#110000
1"
1Q
1=!
1\"
0#"
1%"
1""
0A!
#120000
0"
0Q
0=!
#130000
1"
1Q
1=!
1["
0_"
1#"
0""
0$"
1&"
0'"
0)"
1*"
#140000
0"
0Q
0=!
#150000
1"
1Q
1=!
1Z"
0^"
0#"
0%"
0("
1+"
0*"
1,"
1'"
1)"
1""
0&"
0`!
0'"
1*"
0,"
1-"
0-"
#160000
0"
0Q
0=!
#170000
1"
1Q
1=!
1K!
1#"
0""
1$"
0J!
1L!
1M!
#180000
0"
0Q
0=!
#190000
1"
1Q
1=!
0K!
1N!
0#"
1%"
1""
0M!
0O!
1J!
0L!
1M!
1O!
1P!
0P!
#200000
0"
0Q
0=!
#210000
1"
1Q
1=!
1K!
1#"
0""
0$"
1&"
0J!
1L!
0M!
0O!
1'"
1P!
#220000
0"
0Q
0=!
#230000
1"
1Q
1=!
0K!
0N!
1Q!
0#"
0%"
1("
0'"
0)"
1""
0&"
0P!
1R!
1N"
1M!
1O!
1J!
0L!
0M!
1P!
0R!
1S!
1'"
1)"
0*"
1,"
1-"
1*"
0,"
0S!
0-"
#240000
0"
0Q
0=!
#250000
1"
1Q
1=!
1K!
1#"
1O"
16!
1P"
0""
1$"
0J!
1L!
1q
19!
1M!
1!
1t
1/
#260000
0"
0Q
0=!
#270000
1"
1Q
1=!
0K!
1N!
0#"
1%"
1""
0M!
0O!
1J!
0L!
1M!
1O!
0P!
1R!
1S!
1P!
0R!
0S!
#280000
0"
0Q
0=!
#290000
1"
1Q
1=!
1K!
1#"
0""
0$"
1&"
0J!
1L!
0M!
0O!
0'"
0)"
0*"
1,"
0P!
1R!
1S!
1-"
#300000
0"
0Q
0=!
#310000
1"
1Q
1=!
0K!
0N!
0Q!
1T!
0#"
0%"
0("
0+"
1."
0-"
0/"
1*"
0,"
1'"
1)"
1""
0&"
0S!
0U!
1P!
0R!
0N"
1M!
1O!
1J!
0L!
0M!
0P!
1S!
1U!
1V!
0'"
0*"
1-"
1/"
10"
00"
0V!
#320000
0"
0Q
0=!
#330000
1"
1Q
1=!
1K!
1#"
0O"
06!
0P"
0""
1$"
0J!
1L!
0q
09!
1M!
0!
0t
0/
#340000
0"
0Q
0=!
#350000
1"
1Q
1=!
0K!
1N!
0#"
1%"
1""
0M!
0O!
1J!
0L!
1M!
1O!
1P!
0P!
#360000
0"
0Q
0=!
#370000
1"
1Q
1=!
1K!
1#"
0""
0$"
1&"
0J!
1L!
0M!
0O!
1'"
1P!
#380000
0"
0Q
0=!
#390000
1"
1Q
1=!
0K!
0N!
1Q!
0#"
0%"
1("
0'"
0)"
1""
0&"
0P!
1R!
1N"
1M!
1O!
1J!
0L!
0M!
1P!
0R!
0S!
0U!
1'"
1)"
1*"
0*"
1V!
1S!
1U!
0V!
#400000
0"
0Q
0=!
#410000
1"
1Q
1=!
1K!
1#"
1O"
16!
1P"
0""
1$"
0J!
1L!
1q
19!
1M!
1!
1t
1/
#420000
0"
0Q
0=!
#430000
1"
1Q
1=!
0K!
1N!
0#"
1%"
1""
0M!
0O!
1J!
0L!
1M!
1O!
0P!
1R!
0S!
0U!
1P!
0R!
1S!
1U!
1V!
0V!
#440000
0"
0Q
0=!
#450000
1"
1Q
1=!
1K!
1#"
0""
0$"
1&"
0J!
1L!
0M!
0O!
0'"
0)"
1*"
0P!
1R!
0S!
0U!
1V!
#460000
0"
0Q
0=!
#470000
1"
1Q
1=!
0K!
0N!
0Q!
0T!
1W!
0#"
0%"
0("
1+"
0*"
1,"
1'"
1)"
1""
0&"
0V!
1X!
1S!
1U!
1P!
0R!
0N"
1M!
1O!
1J!
0L!
0M!
0P!
0S!
1V!
0'"
1*"
0,"
0-"
0/"
10"
1-"
1/"
00"
#480000
0"
0Q
0=!
#490000
1"
1Q
1=!
1K!
1Y"
1#"
0O"
06!
0P"
0""
1$"
1Y!
1Z!
1`!
0J!
1L!
0q
15!
09!
1M!
1]!
0!
1p
0t
1?
0/
#500000
0"
0Q
0=!
#510000
1"
1Q
1=!
0K!
1N!
1X"
1^!
1a!
0#"
1%"
1""
1b!
1H"
0_!
1F"
0Z!
0`!
0M!
0O!
1J!
0L!
05!
1M!
1O!
1P!
0G"
1l"
0p
0P!
0?
1)!
1b
1)
#520000
0"
0Q
0=!
#530000
1"
1Q
1=!
1K!
1#"
0""
0$"
1&"
0J!
1L!
0M!
0O!
1'"
1P!
#540000
0"
0Q
0=!
#550000
1"
1Q
1=!
0K!
0N!
1Q!
0#"
0%"
1("
0'"
0)"
1""
0&"
0P!
1R!
1N"
1M!
1O!
1J!
0L!
0M!
1P!
0R!
1S!
1'"
1)"
0*"
1,"
0-"
0/"
1*"
0,"
0S!
1-"
1/"
10"
00"
#560000
0"
0Q
0=!
#570000
1"
1Q
1=!
1K!
1#"
1O"
16!
1P"
0""
1$"
0J!
1L!
1q
19!
1M!
1!
1t
1/
#580000
0"
0Q
0=!
#590000
1"
1Q
1=!
0K!
1N!
0#"
1%"
1""
0M!
0O!
1J!
0L!
1M!
1O!
0P!
1R!
1S!
1P!
0R!
0S!
#600000
0"
0Q
0=!
#610000
1"
1Q
1=!
1K!
1#"
0""
0$"
1&"
0J!
1L!
0M!
0O!
0'"
0)"
0*"
1,"
0P!
1R!
1S!
0-"
0/"
10"
#620000
0"
0Q
0=!
#630000
1"
1Q
1=!
0K!
0N!
0Q!
1T!
0#"
0%"
0("
0+"
0."
11"
00"
12"
1-"
1/"
1*"
0,"
1'"
1)"
1""
0&"
0S!
0U!
1P!
0R!
0N"
1M!
1O!
1J!
0L!
0M!
0P!
1S!
1U!
0V!
0'"
0*"
0-"
10"
02"
13"
03"
1V!
#640000
0"
0Q
0=!
#650000
1"
1Q
1=!
1K!
1#"
0O"
06!
0P"
0""
1$"
0J!
1L!
0q
09!
1M!
0!
0t
0/
#660000
0"
0Q
0=!
#670000
1"
1Q
1=!
0K!
1N!
0#"
1%"
1""
0M!
0O!
1J!
0L!
1M!
1O!
1P!
0P!
#680000
0"
0Q
0=!
#690000
1"
1Q
1=!
1K!
1#"
0""
0$"
1&"
0J!
1L!
0M!
0O!
1'"
1P!
#700000
0"
0Q
0=!
#710000
1"
1Q
1=!
0K!
0N!
1Q!
0#"
0%"
1("
0'"
0)"
1""
0&"
0P!
1R!
1N"
1M!
1O!
1J!
0L!
0M!
1P!
0R!
0S!
0U!
1'"
1)"
1*"
0*"
0V!
1S!
1U!
1V!
#720000
0"
0Q
0=!
#730000
1"
1Q
1=!
1K!
1#"
1O"
16!
1P"
0""
1$"
0J!
1L!
1q
19!
1M!
1!
1t
1/
#740000
0"
0Q
0=!
#750000
1"
1Q
1=!
0K!
1N!
0#"
1%"
1""
0M!
0O!
1J!
0L!
1M!
1O!
0P!
1R!
0S!
0U!
1P!
0R!
1S!
1U!
0V!
1V!
#760000
0"
0Q
0=!
#770000
1"
1Q
1=!
1K!
1#"
0""
0$"
1&"
0J!
1L!
0M!
0O!
0'"
0)"
1*"
0P!
1R!
0S!
0U!
0V!
#780000
0"
0Q
0=!
#790000
1"
1Q
1=!
0K!
0N!
0Q!
0T!
0W!
0#"
0%"
0("
1+"
0*"
1,"
1'"
1)"
1""
0&"
1V!
0X!
1S!
1U!
1P!
0R!
0N"
1M!
1O!
1J!
0L!
0M!
0P!
0S!
0V!
0'"
1*"
0,"
1-"
0-"
#800000
0"
0Q
0=!
#810000
1"
1Q
1=!
1K!
0Y"
1#"
0O"
06!
0P"
0""
1$"
0Y!
0J!
1L!
0q
09!
1M!
0!
0t
0/
#820000
0"
0Q
0=!
#830000
1"
1Q
1=!
0K!
1N!
0X"
0#"
1%"
1""
0M!
0O!
1J!
0L!
1M!
1O!
1P!
0P!
#840000
0"
0Q
0=!
#850000
1"
1Q
1=!
1K!
1#"
0""
0$"
1&"
0J!
1L!
0M!
0O!
1'"
1P!
#860000
0"
0Q
0=!
#870000
1"
1Q
1=!
0K!
0N!
1Q!
0#"
0%"
1("
0'"
0)"
1""
0&"
0P!
1R!
1N"
1M!
1O!
1J!
0L!
0M!
1P!
0R!
1S!
1'"
1)"
0*"
1,"
1-"
1*"
0,"
0S!
0-"
#880000
0"
0Q
0=!
#890000
1"
1Q
1=!
1K!
1#"
1O"
16!
1P"
0""
1$"
0J!
1L!
1q
19!
1M!
1!
1t
1/
#900000
0"
0Q
0=!
#910000
1"
1Q
1=!
0K!
1N!
0#"
1%"
1""
0M!
0O!
1J!
0L!
1M!
1O!
0P!
1R!
1S!
1P!
0R!
0S!
#920000
0"
0Q
0=!
#930000
1"
1Q
1=!
1K!
1#"
0""
0$"
1&"
0J!
1L!
0M!
0O!
0'"
0)"
0*"
1,"
0P!
1R!
1S!
1-"
#940000
0"
0Q
0=!
#950000
1"
1Q
1=!
0K!
0N!
0Q!
1T!
0#"
0%"
0("
0+"
1."
0-"
0/"
1*"
0,"
1'"
1)"
1""
0&"
0S!
0U!
1P!
0R!
0N"
1M!
1O!
1J!
0L!
0M!
0P!
1S!
1U!
1V!
0'"
0*"
1-"
1/"
00"
12"
13"
10"
02"
0V!
03"
#960000
0"
0Q
0=!
#970000
1"
1Q
1=!
1K!
1#"
0O"
06!
0P"
0""
1$"
0J!
1L!
0q
09!
1M!
0!
0t
0/
#980000
0"
0Q
0=!
#990000
1"
1Q
1=!
0K!
1N!
0#"
1%"
1""
0M!
0O!
1J!
0L!
1M!
1O!
1P!
0P!
#1000000
0"
0Q
0=!
#1010000
1"
1Q
1=!
1K!
1#"
0""
0$"
1&"
0J!
1L!
0M!
0O!
1'"
1P!
#1020000
0"
0Q
0=!
#1030000
1"
1Q
1=!
0K!
0N!
1Q!
0#"
0%"
1("
0'"
0)"
1""
0&"
0P!
1R!
1N"
1M!
1O!
1J!
0L!
0M!
1P!
0R!
0S!
0U!
1'"
1)"
1*"
0*"
1V!
1S!
1U!
0V!
#1040000
0"
0Q
0=!
#1050000
1"
1Q
1=!
1K!
1#"
1O"
16!
1P"
0""
1$"
0J!
1L!
1q
19!
1M!
1!
1t
1/
#1060000
0"
0Q
0=!
#1070000
1"
1Q
1=!
0K!
1N!
0#"
1%"
1""
0M!
0O!
1J!
0L!
1M!
1O!
0P!
1R!
0S!
0U!
1P!
0R!
1S!
1U!
1V!
0V!
#1080000
0"
0Q
0=!
#1090000
1"
1Q
1=!
1K!
1#"
0""
0$"
1&"
0J!
1L!
0M!
0O!
0'"
0)"
1*"
0P!
1R!
0S!
0U!
1V!
#1100000
0"
0Q
0=!
#1110000
1"
1Q
1=!
0K!
0N!
0Q!
0T!
1W!
0#"
0%"
0("
1+"
0*"
1,"
1'"
1)"
1""
0&"
0V!
1X!
1S!
1U!
1P!
0R!
0N"
1M!
1O!
1J!
0L!
0M!
0P!
0S!
1V!
0'"
1*"
0,"
0-"
0/"
00"
12"
1-"
1/"
10"
02"
13"
03"
#1120000
0"
0Q
0=!
#1130000
1"
1Q
1=!
1K!
1Y"
1#"
0O"
06!
0P"
0""
1$"
1Y!
1Z!
1`!
0J!
1L!
0q
15!
09!
1M!
0!
1p
0t
1?
0/
#1140000
0"
0Q
0=!
#1150000
1"
1Q
1=!
0K!
1N!
1X"
0a!
1c!
0#"
1%"
1""
1d!
1C"
1E"
0b!
1j!
0H"
0Z!
0`!
0M!
0O!
1J!
0L!
05!
1%!
1M!
1O!
1P!
0d!
0I"
1G"
1P"
0l"
1k"
0p
1f
19!
0P!
0?
1-
1*!
0)!
1t
1a
0b
1/
0)
1(
#1160000
0"
0Q
0=!
#1170000
1"
1Q
1=!
1K!
1#"
0""
0$"
1&"
0J!
1L!
0M!
0O!
1'"
1P!
#1180000
0"
0Q
0=!
#1190000
1"
1Q
1=!
0K!
0N!
1Q!
0#"
0%"
1("
0'"
0)"
1""
0&"
0P!
1R!
1N"
1M!
1O!
1J!
0L!
0M!
1P!
0R!
1S!
1'"
1)"
0*"
1,"
0-"
0/"
1*"
0,"
0S!
1-"
1/"
00"
12"
13"
10"
02"
03"
#1200000
0"
0Q
0=!
#1210000
1"
1Q
1=!
1K!
1#"
1O"
16!
0""
1$"
0J!
1L!
1q
1M!
1!
#1220000
0"
0Q
0=!
#1230000
1"
1Q
1=!
0K!
1N!
0#"
1%"
1""
0M!
0O!
1J!
0L!
1M!
1O!
0P!
1R!
1S!
1P!
0R!
0S!
#1240000
0"
0Q
0=!
#1250000
1"
1Q
1=!
1K!
1#"
0""
0$"
1&"
0J!
1L!
0M!
0O!
0'"
0)"
0*"
1,"
0P!
1R!
1S!
0-"
0/"
00"
12"
13"
#1260000
0"
0Q
0=!
